<?xml version="1.0"?>
<font>
  <info face="Early GameBoy" size="32" bold="0" italic="0" charset="" unicode="1" stretchH="100" smooth="0" aa="1" padding="1,1,1,1" spacing="1,1" outline="0"/>
  <common lineHeight="32" base="25" scaleW="256" scaleH="512" pages="1" packed="0" alphaChnl="0" redChnl="4" greenChnl="4" blueChnl="4"/>
  <pages>
    <page id="0" file="Gameboy_32_0.png" />
  </pages>
  <chars count="86">
    <char id="32" x="246" y="19" width="5" height="3" xoffset="-2" yoffset="30" xadvance="13" page="0" chnl="15" />
    <char id="33" x="242" y="47" width="12" height="21" xoffset="5" yoffset="5" xadvance="25" page="0" chnl="15" />
    <char id="34" x="22" y="163" width="18" height="12" xoffset="-1" yoffset="2" xadvance="25" page="0" chnl="15" />
    <char id="39" x="242" y="69" width="9" height="12" xoffset="5" yoffset="2" xadvance="25" page="0" chnl="15" />
    <char id="40" x="187" y="0" width="24" height="27" xoffset="-4" yoffset="2" xadvance="25" page="0" chnl="15" />
    <char id="41" x="132" y="138" width="18" height="21" xoffset="-1" yoffset="5" xadvance="25" page="0" chnl="15" />
    <char id="42" x="215" y="138" width="18" height="18" xoffset="-1" yoffset="8" xadvance="25" page="0" chnl="15" />
    <char id="44" x="245" y="25" width="8" height="14" xoffset="2" yoffset="15" xadvance="25" page="0" chnl="15" />
    <char id="45" x="79" y="160" width="15" height="9" xoffset="2" yoffset="11" xadvance="25" page="0" chnl="15" />
    <char id="46" x="242" y="108" width="8" height="8" xoffset="-1" yoffset="18" xadvance="25" page="0" chnl="15" />
    <char id="48" x="47" y="28" width="21" height="21" xoffset="-1" yoffset="5" xadvance="25" page="0" chnl="15" />
    <char id="49" x="199" y="138" width="15" height="21" xoffset="2" yoffset="5" xadvance="25" page="0" chnl="15" />
    <char id="50" x="22" y="53" width="21" height="21" xoffset="-1" yoffset="5" xadvance="25" page="0" chnl="15" />
    <char id="51" x="44" y="53" width="21" height="21" xoffset="-1" yoffset="5" xadvance="25" page="0" chnl="15" />
    <char id="52" x="66" y="50" width="21" height="21" xoffset="-1" yoffset="5" xadvance="25" page="0" chnl="15" />
    <char id="53" x="88" y="50" width="21" height="21" xoffset="-1" yoffset="5" xadvance="25" page="0" chnl="15" />
    <char id="54" x="110" y="50" width="21" height="21" xoffset="-1" yoffset="5" xadvance="25" page="0" chnl="15" />
    <char id="55" x="132" y="50" width="21" height="21" xoffset="-1" yoffset="5" xadvance="25" page="0" chnl="15" />
    <char id="56" x="154" y="50" width="21" height="21" xoffset="-1" yoffset="5" xadvance="25" page="0" chnl="15" />
    <char id="57" x="176" y="50" width="21" height="21" xoffset="-1" yoffset="5" xadvance="25" page="0" chnl="15" />
    <char id="58" x="246" y="0" width="8" height="18" xoffset="2" yoffset="8" xadvance="25" page="0" chnl="15" />
    <char id="59" x="237" y="0" width="8" height="24" xoffset="2" yoffset="5" xadvance="25" page="0" chnl="15" />
    <char id="60" x="0" y="28" width="24" height="24" xoffset="-1" yoffset="8" xadvance="28" page="0" chnl="15" />
    <char id="62" x="234" y="138" width="18" height="18" xoffset="2" yoffset="11" xadvance="28" page="0" chnl="15" />
    <char id="63" x="25" y="28" width="21" height="24" xoffset="-4" yoffset="5" xadvance="25" page="0" chnl="15" />
    <char id="65" x="198" y="50" width="21" height="21" xoffset="-1" yoffset="5" xadvance="25" page="0" chnl="15" />
    <char id="66" x="220" y="50" width="21" height="21" xoffset="-1" yoffset="5" xadvance="25" page="0" chnl="15" />
    <char id="67" x="0" y="75" width="21" height="21" xoffset="-1" yoffset="5" xadvance="25" page="0" chnl="15" />
    <char id="68" x="22" y="75" width="21" height="21" xoffset="-1" yoffset="5" xadvance="25" page="0" chnl="15" />
    <char id="69" x="44" y="75" width="21" height="21" xoffset="-1" yoffset="5" xadvance="25" page="0" chnl="15" />
    <char id="70" x="66" y="72" width="21" height="21" xoffset="-1" yoffset="5" xadvance="25" page="0" chnl="15" />
    <char id="71" x="88" y="72" width="21" height="21" xoffset="-1" yoffset="5" xadvance="25" page="0" chnl="15" />
    <char id="72" x="110" y="72" width="21" height="21" xoffset="-1" yoffset="5" xadvance="25" page="0" chnl="15" />
    <char id="73" x="151" y="138" width="15" height="21" xoffset="2" yoffset="5" xadvance="25" page="0" chnl="15" />
    <char id="74" x="154" y="72" width="21" height="21" xoffset="-1" yoffset="5" xadvance="25" page="0" chnl="15" />
    <char id="75" x="176" y="72" width="21" height="21" xoffset="-1" yoffset="5" xadvance="25" page="0" chnl="15" />
    <char id="76" x="198" y="72" width="21" height="21" xoffset="-1" yoffset="5" xadvance="25" page="0" chnl="15" />
    <char id="77" x="220" y="72" width="21" height="21" xoffset="-1" yoffset="5" xadvance="25" page="0" chnl="15" />
    <char id="78" x="0" y="97" width="21" height="21" xoffset="-1" yoffset="5" xadvance="25" page="0" chnl="15" />
    <char id="79" x="22" y="97" width="21" height="21" xoffset="-1" yoffset="5" xadvance="25" page="0" chnl="15" />
    <char id="80" x="44" y="97" width="21" height="21" xoffset="-1" yoffset="5" xadvance="25" page="0" chnl="15" />
    <char id="81" x="66" y="94" width="21" height="21" xoffset="-1" yoffset="5" xadvance="25" page="0" chnl="15" />
    <char id="82" x="88" y="94" width="21" height="21" xoffset="-1" yoffset="5" xadvance="25" page="0" chnl="15" />
    <char id="83" x="132" y="72" width="21" height="21" xoffset="-1" yoffset="5" xadvance="25" page="0" chnl="15" />
    <char id="84" x="132" y="94" width="21" height="21" xoffset="-1" yoffset="5" xadvance="25" page="0" chnl="15" />
    <char id="85" x="154" y="94" width="21" height="21" xoffset="-1" yoffset="5" xadvance="25" page="0" chnl="15" />
    <char id="86" x="176" y="94" width="21" height="21" xoffset="-1" yoffset="5" xadvance="25" page="0" chnl="15" />
    <char id="87" x="198" y="94" width="21" height="21" xoffset="-1" yoffset="5" xadvance="25" page="0" chnl="15" />
    <char id="88" x="220" y="94" width="21" height="21" xoffset="-1" yoffset="5" xadvance="25" page="0" chnl="15" />
    <char id="89" x="0" y="119" width="21" height="21" xoffset="-1" yoffset="5" xadvance="25" page="0" chnl="15" />
    <char id="90" x="22" y="119" width="21" height="21" xoffset="-1" yoffset="5" xadvance="25" page="0" chnl="15" />
    <char id="91" x="159" y="0" width="27" height="27" xoffset="-4" yoffset="2" xadvance="25" page="0" chnl="15" />
    <char id="93" x="0" y="163" width="21" height="12" xoffset="-1" yoffset="5" xadvance="25" page="0" chnl="15" />
    <char id="97" x="0" y="53" width="21" height="21" xoffset="-1" yoffset="5" xadvance="25" page="0" chnl="15" />
    <char id="98" x="44" y="119" width="21" height="21" xoffset="-1" yoffset="5" xadvance="25" page="0" chnl="15" />
    <char id="99" x="66" y="116" width="21" height="21" xoffset="-1" yoffset="5" xadvance="25" page="0" chnl="15" />
    <char id="100" x="88" y="116" width="21" height="21" xoffset="-1" yoffset="5" xadvance="25" page="0" chnl="15" />
    <char id="101" x="110" y="116" width="21" height="21" xoffset="-1" yoffset="5" xadvance="25" page="0" chnl="15" />
    <char id="102" x="132" y="116" width="21" height="21" xoffset="-1" yoffset="5" xadvance="25" page="0" chnl="15" />
    <char id="103" x="154" y="116" width="21" height="21" xoffset="-1" yoffset="5" xadvance="25" page="0" chnl="15" />
    <char id="104" x="176" y="116" width="21" height="21" xoffset="-1" yoffset="5" xadvance="25" page="0" chnl="15" />
    <char id="105" x="167" y="138" width="15" height="21" xoffset="2" yoffset="5" xadvance="25" page="0" chnl="15" />
    <char id="106" x="198" y="116" width="21" height="21" xoffset="-1" yoffset="5" xadvance="25" page="0" chnl="15" />
    <char id="107" x="220" y="116" width="21" height="21" xoffset="-1" yoffset="5" xadvance="25" page="0" chnl="15" />
    <char id="108" x="0" y="141" width="21" height="21" xoffset="-1" yoffset="5" xadvance="25" page="0" chnl="15" />
    <char id="109" x="22" y="141" width="21" height="21" xoffset="-1" yoffset="5" xadvance="25" page="0" chnl="15" />
    <char id="110" x="44" y="141" width="21" height="21" xoffset="-1" yoffset="5" xadvance="25" page="0" chnl="15" />
    <char id="111" x="66" y="138" width="21" height="21" xoffset="-1" yoffset="5" xadvance="25" page="0" chnl="15" />
    <char id="112" x="88" y="138" width="21" height="21" xoffset="-1" yoffset="5" xadvance="25" page="0" chnl="15" />
    <char id="113" x="110" y="138" width="21" height="21" xoffset="-1" yoffset="5" xadvance="25" page="0" chnl="15" />
    <char id="114" x="69" y="28" width="21" height="21" xoffset="-1" yoffset="5" xadvance="25" page="0" chnl="15" />
    <char id="115" x="91" y="28" width="21" height="21" xoffset="-1" yoffset="5" xadvance="25" page="0" chnl="15" />
    <char id="116" x="113" y="28" width="21" height="21" xoffset="-1" yoffset="5" xadvance="25" page="0" chnl="15" />
    <char id="117" x="135" y="28" width="21" height="21" xoffset="-1" yoffset="5" xadvance="25" page="0" chnl="15" />
    <char id="118" x="157" y="28" width="21" height="21" xoffset="-1" yoffset="5" xadvance="25" page="0" chnl="15" />
    <char id="119" x="110" y="94" width="21" height="21" xoffset="-1" yoffset="5" xadvance="25" page="0" chnl="15" />
    <char id="120" x="179" y="28" width="21" height="21" xoffset="-1" yoffset="5" xadvance="25" page="0" chnl="15" />
    <char id="121" x="201" y="28" width="21" height="21" xoffset="-1" yoffset="5" xadvance="25" page="0" chnl="15" />
    <char id="122" x="223" y="25" width="21" height="21" xoffset="-1" yoffset="5" xadvance="25" page="0" chnl="15" />
    <char id="124" x="0" y="0" width="158" height="27" xoffset="-1" yoffset="-1" xadvance="156" page="0" chnl="15" />
    <char id="126" x="183" y="138" width="15" height="21" xoffset="-1" yoffset="5" xadvance="25" page="0" chnl="15" />
    <char id="169" x="212" y="0" width="24" height="24" xoffset="-1" yoffset="2" xadvance="25" page="0" chnl="15" />
    <char id="8216" x="242" y="82" width="9" height="12" xoffset="5" yoffset="2" xadvance="25" page="0" chnl="15" />
    <char id="8217" x="242" y="95" width="9" height="12" xoffset="5" yoffset="2" xadvance="25" page="0" chnl="15" />
    <char id="8220" x="41" y="163" width="18" height="12" xoffset="-1" yoffset="5" xadvance="25" page="0" chnl="15" />
    <char id="8221" x="60" y="163" width="18" height="12" xoffset="-1" yoffset="5" xadvance="25" page="0" chnl="15" />
  </chars>
</font>
